{
  "jim": {
    "expo-asset-utils": "^2.0.0",
    "@react-spring/core": "^9.1.1",
    "react-native-svg": "^12.1.1",
    "recoil": "^0.2.0",

    "three-geojson-geometry": "^1.1.2",

    "threejs-meshline": "^2.0.12",

    "throttle-debounce": "^3.0.1"


  }, "nm:" : {

    "expo-speech": "^9.1.0",
  }
}